Fatality Analysis Reporting System (FARS)
…
Function fars_read_years

Ancillary function used by fars_summarize_years

fars_read_years(2013)
#> Warning: `tbl_df()` was deprecated in dplyr 1.0.0.
#> i Please use `tibble::as_tibble()` instead.
#> i The deprecated feature was likely used in the fars package.
#>   Please report the issue to the authors.
#> This warning is displayed once every 8 hours.
#> Call `lifecycle::last_lifecycle_warnings()` to see where this warning was
#> generated.
#> [[1]]
#> # A tibble: 30,202 x 2
#>    MONTH  year
#>    <dbl> <dbl>
#>  1     1  2013
#>  2     1  2013
#>  3     1  2013
#>  4     1  2013
#>  5     1  2013
#>  6     1  2013
#>  7     1  2013
#>  8     1  2013
#>  9     1  2013
#> 10     1  2013
#> # ... with 30,192 more rows
…
